# SGED index file version 0.99
# SGED input alignment = CRISP_subset_PAML_BSM9_prot.fasta
# SGED input alignment sequence = Ovophis_okinavensis|AB848276
# SGED input PDB = full_model_309283_5.pdb
# SGED input PDB chain = A
# SGED index start
AlnPos,PdbRes
1,NA
2,NA
3,VAL13
4,LEU14
5,GLN15
6,GLN16
7,NA
8,GLN34
9,ASN35
10,GLU36
11,ILE37
12,VAL38
13,ASP39
14,LEU40
15,HIS41
16,ASN42
17,SER43
18,LEU44
19,ARG45
20,ARG46
21,SER47
22,VAL48
23,ASN49
24,PRO50
25,THR51
26,ALA52
27,SER53
28,ASN54
29,MET55
30,LEU56
31,LYS57
32,MET58
33,GLU59
34,TRP60
35,TYR61
36,PRO62
37,GLU63
38,ALA64
39,ALA65
40,ALA66
41,ASN67
42,ALA68
43,GLU69
44,ARG70
45,TRP71
46,ALA72
47,TYR73
48,ARG74
49,CYS75
50,HIS79
51,SER80
52,PRO81
53,ARG82
54,ASP83
55,SER84
56,ARG85
57,GLY89
58,ILE90
59,LYS91
60,CYS92
61,GLY93
62,GLU94
63,ASN95
64,ILE96
65,TYR97
66,MET98
67,SER99
68,THR100
69,ASN101
70,PRO102
71,ARG103
72,LYS104
73,TRP105
74,ILE106
75,GLU107
76,ILE108
77,ILE109
78,HIS110
79,ALA111
80,TRP112
81,HIS113
82,ASP114
83,GLU115
84,TYR116
85,LYS117
86,ASP118
87,PHE119
88,LYS120
89,TYR121
90,GLY122
91,ILE123
92,GLY124
93,ALA125
94,ASP126
95,PRO127
96,SER128
97,ASN129
98,ALA130
99,VAL131
100,TYR135
101,THR136
102,GLN137
103,ILE138
104,VAL139
105,TRP140
106,TYR141
107,LYS142
108,SER143
109,TYR144
110,ARG145
111,ALA146
112,GLY147
113,CYS148
114,ALA149
115,ALA150
116,ALA151
117,TYR152
118,CYS153
119,PHE161
120,TYR162
121,VAL163
122,CYS164
123,GLN165
124,TYR166
125,CYS167
126,PRO168
127,ALA169
128,GLY170
129,ASN171
130,ILE172
131,VAL173
132,GLY174
133,LYS175
134,THR176
135,ALA177
136,THR178
137,PRO179
138,TYR180
139,LYS181
140,SER182
141,GLY183
142,PRO184
143,PRO185
144,CYS186
145,GLY187
146,ASP188
147,CYS189
148,PRO190
149,SER191
150,ALA192
151,CYS193
152,ASP194
153,ASN195
154,GLY196
155,LEU197
156,CYS198
157,CYS202
158,THR203
159,GLU204
160,GLU205
161,ASN206
162,ASN210
163,CYS211
164,ASN212
165,SER213
166,MET214
167,CYS220
168,PRO230
169,ALA231
170,SER232
171,CYS233
172,PHE234
173,CYS235
