Group	Size	IsConstant	Dmax	Stat	Nmin
[1;84]	2	no	0.514405	0.485595	8.20776
[28;140]	2	no	0.396647	0.603353	1.99152
[28;140;96]	3	no	0.593413	0.406587	1.99152
[86;99]	2	no	0.478825	0.521175	22
[28;140;96;86;99]	5	no	0.616671	0.383329	1.99152
[28;140;96;86;99;103]	6	no	0.73032	0.26968	1.99152
[1;84;28;140;96;86;99;103]	8	no	0.825727	0.174273	1.99152
[89;133]	2	no	0.519876	0.480124	7.61615
[89;133;114]	3	no	0.72653	0.27347	5.34777
[89;133;114;111]	4	no	0.948402	0.0515983	5.34777
[32;143]	2	no	0.332579	0.667421	3.02515
[40;107]	2	no	0.548735	0.451265	6.91634
[32;143;40;107]	4	no	0.601669	0.398331	3.02515
[77;112]	2	no	0.501139	0.498861	3.41101
[32;143;40;107;77;112]	6	no	1.00871	-0.00870589	3.02515
[4;119]	2	no	0.262799	0.737201	7.57113
[4;119;131]	3	no	0.640452	0.359548	7.57113
[145;160]	2	no	0.570758	0.429242	10.3568
[4;119;131;145;160]	5	no	0.818138	0.181862	7.57113
[7;20]	2	no	0.491683	0.508317	2.69651
[66;79]	2	no	0.682709	0.317291	15.1531
[7;20;66;79]	4	no	0.745866	0.254134	2.69651
[4;119;131;145;160;7;20;66;79]	9	no	0.98003	0.0199702	2.69651
[10;115]	2	no	0.426095	0.573905	17.3728
[10;115;58]	3	no	0.533427	0.466573	17.3728
[10;115;58;93]	4	no	0.645623	0.354377	7.86151
[64;120]	2	no	0.637012	0.362988	8.03703
[43;64;120]	3	no	0.764977	0.235023	8.03703
[10;115;58;93;43;64;120]	7	no	0.965907	0.0340933	7.86151
[56;61]	2	no	0.000626411	0.999374	5.71869
[56;61;62]	3	no	0.0640529	0.935947	1.93607
[8;56;61;62]	4	no	0.307384	0.692616	1.93607
[8;56;61;62;63]	5	no	0.366602	0.633398	1.93607
[46;83]	2	no	0.489599	0.510401	5.28026
[8;56;61;62;63;46;83]	7	no	0.661879	0.338121	1.93607
[45;76]	2	no	0.603258	0.396742	7.38605
[8;56;61;62;63;46;83;45;76]	9	no	0.817316	0.182684	1.93607
[8;56;61;62;63;46;83;45;76;106]	10	no	0.841666	0.158334	1.93607
[9;68]	2	no	0.534275	0.465725	8.96017
[9;68;170]	3	no	0.603339	0.396661	7.23056
[17;94]	2	no	0.655009	0.344991	16.1343
[9;68;170;17;94]	5	no	0.852776	0.147224	7.23056
[154;172]	2	no	0.513731	0.486269	5.14256
[12;154;172]	3	no	0.622727	0.377273	5.14256
[12;154;172;161]	4	no	0.944191	0.0558086	4.81534
[9;68;170;17;94;12;154;172;161]	9	no	1.01229	-0.0122923	4.81534
[11;169]	2	no	0.043118	0.956882	0.700149
[42;44]	2	no	0.536773	0.463227	1.10442
[11;169;42;44]	4	no	1.00782	-0.00781524	0.700149
[65;124]	2	no	0.406867	0.593133	1.69179
[15;65;124]	3	no	0.657185	0.342815	1.69179
[50;121]	2	no	0.419278	0.580722	5.50572
[15;65;124;50;121]	5	no	0.793379	0.206621	1.69179
[57;156]	2	no	0.722076	0.277924	0.300323
[101;108]	2	no	0.513337	0.486663	1.2032
[57;156;101;108]	4	no	1.01644	-0.0164433	0.300323
[15;65;124;50;121;57;156;101;108]	9	no	1.02301	-0.0230128	0.300323
[51;123]	2	no	0.101136	0.898864	4.53724
[51;123;173]	3	no	0.569622	0.430378	4.53724
[51;123;173;100]	4	no	1.01712	-0.017124	4.53724
[152;157]	2	no	0.46033	0.53967	0.603819
[31;152;157]	3	no	0.734141	0.265859	0.603819
[2;130]	2	no	0.464945	0.535055	8.9681
[2;130;67]	3	no	0.477521	0.522479	4.68694
[38;139]	2	no	0.701788	0.298212	7.29972
[2;130;67;38;139]	5	no	0.977276	0.0227241	4.68694
[16;109]	2	no	0.765471	0.234529	0.313482
[30;41]	2	no	0.452173	0.547827	2.0005
[30;41;39]	3	no	0.67366	0.32634	2.0005
[30;41;39;148]	4	no	0.896222	0.103778	2.0005
[16;109;30;41;39;148]	6	no	1.00356	-0.00356147	0.313482
[24;26]	2	no	0.00263565	0.997364	0.909307
[3;24;26]	3	no	0.18196	0.81804	0.909307
[3;24;26;158]	4	no	0.324772	0.675228	0.909307
[3;24;26;158;134]	5	no	0.476996	0.523004	0.909307
[3;24;26;158;134;75]	6	no	0.548428	0.451572	0.909307
[3;24;26;158;134;75;125]	7	no	0.702323	0.297677	0.909307
[5;126]	2	no	0.35443	0.64557	1.22892
[5;126;146]	3	no	0.519109	0.480891	1.22892
[27;150]	2	no	0.551246	0.448754	5.78317
[37;59]	2	no	0.296857	0.703143	18.9323
[37;59;54]	3	no	0.465813	0.534187	18.9323
[37;59;54;159]	4	no	0.619804	0.380196	18.9323
[27;150;37;59;54;159]	6	no	0.775908	0.224092	5.78317
[5;126;146;27;150;37;59;54;159]	9	no	0.87755	0.12245	1.22892
[14;53]	2	no	0.436536	0.563464	22.9766
[25;129]	2	no	0.124543	0.875457	3.08437
[23;25;129]	3	no	0.181854	0.818146	3.08437
[23;25;129;55]	4	no	0.23739	0.76261	3.08437
[23;25;129;55;149]	5	no	0.343749	0.656251	3.08437
[14;53;23;25;129;55;149]	7	no	0.441314	0.558686	3.08437
[52;85]	2	no	0.419852	0.580148	13.0982
[14;53;23;25;129;55;149;52;85]	9	no	0.508144	0.491856	3.08437
[14;53;23;25;129;55;149;52;85;48]	10	no	0.583641	0.416359	3.08437
[164;165]	2	no	0.467395	0.532605	26.3177
[74;164;165]	3	no	0.561775	0.438225	13.6643
[74;164;165;82]	4	no	0.688758	0.311242	13.1283
[35;97]	2	no	0.576642	0.423358	9.77457
[72;110]	2	no	0.652055	0.347945	10.6537
[81;132]	2	no	0.502676	0.497324	12.2161
[72;110;81;132]	4	no	0.715223	0.284777	10.6537
[35;97;72;110;81;132]	6	no	0.853561	0.146439	9.77457
[47;80]	2	no	0.509607	0.490393	0.828425
[116;127]	2	no	0.608811	0.391189	8.8074
[47;80;116;127]	4	no	0.761277	0.238723	0.828425
[47;80;116;127;90]	5	no	0.865529	0.134471	0.828425
[87;104]	2	no	0.431278	0.568722	1.03562
[47;80;116;127;90;87;104]	7	no	1.00892	-0.00891586	0.828425
[18;78]	2	no	0.456525	0.543475	6.75421
[6;18;78]	3	no	0.570897	0.429103	6.75421
[33;162]	2	no	0.320076	0.679924	14.4245
[33;162;153]	3	no	0.508884	0.491116	4.24719
[6;18;78;33;162;153]	6	no	0.782031	0.217969	4.24719
[70;92]	2	no	0.495211	0.504789	2.41822
[98;166]	2	no	0.463797	0.536203	5.56125
[88;98;166]	3	no	0.632913	0.367087	5.56125
[70;92;88;98;166]	5	no	0.848221	0.151779	2.41822
[13;71]	2	no	0.518668	0.481332	8.78673
[13;71;69]	3	no	0.620836	0.379164	8.78673
[21;135]	2	no	0.448142	0.551858	12.0764
[21;135;168]	3	no	0.525481	0.474519	12.0764
[21;135;168;36]	4	no	0.60561	0.39439	12.0764
[13;71;69;21;135;168;36]	7	no	0.740795	0.259205	8.78673
[91;117]	2	no	0.571912	0.428088	16.4041
[91;117;136]	3	no	0.658868	0.341132	10.1703
[95;142]	2	no	0.46907	0.53093	14.7748
[91;117;136;95;142]	5	no	0.706345	0.293655	10.1703
