Group	Size	IsConstant	Dmax	Stat	Nmin
[2;65]	2	no	7.16255e-05	0.999928	4.82651
[2;65;34]	3	no	0.00117549	0.998825	4.82651
[17;66]	2	no	0.00150528	0.998495	2.47781
[2;65;34;17;66]	5	no	0.00751216	0.992488	2.47781
[95;120]	2	no	0.000308713	0.999691	2.08104
[95;120;126]	3	no	0.0009046	0.999095	2.08104
[95;120;126;130]	4	no	0.00196309	0.998037	2.08104
[95;120;126;130;118]	5	no	0.00388285	0.996117	2.08104
[208;228]	2	no	0.00411459	0.995885	6.88182
[95;120;126;130;118;208;228]	7	no	0.0112896	0.98871	2.08104
[27;79]	2	no	0.00217253	0.997827	7.45967
[57;62]	2	no	6.58668e-06	0.999993	0.974753
[56;57;62]	3	no	2.92666e-05	0.999971	0.974753
[56;57;62;63]	4	no	0.000282878	0.999717	0.974753
[56;57;62;63;90]	5	no	0.00186068	0.998139	0.974753
[27;79;56;57;62;63;90]	7	no	0.0147258	0.985274	0.974753
[18;230]	2	no	0.00862063	0.991379	8.92399
[18;230;206]	3	no	0.0580701	0.94193	7.90487
[18;230;206;196]	4	no	0.100679	0.899321	2.84749
[169;240]	2	no	6.26505e-05	0.999937	2.66729
[169;240;211]	3	no	0.00148338	0.998517	2.66729
[136;169;240;211]	4	no	0.029772	0.970228	2.66729
[100;136;169;240;211]	5	no	0.0390584	0.960942	2.66729
[18;230;206;196;100;136;169;240;211]	9	no	0.114297	0.885703	2.66729
[116;197]	2	no	0.0512823	0.948718	14.3764
[138;222]	2	no	0.0504233	0.949577	9.35445
[138;222;153]	3	no	0.0822217	0.917778	2.36749
[107;113]	2	no	0.0855445	0.914455	6.29565
[109;181]	2	no	0.0247528	0.975247	15.4876
[147;226]	2	no	0.00693395	0.993066	10.0392
[109;181;147;226]	4	no	0.0408165	0.959183	10.0392
[117;224]	2	no	0.0108954	0.989105	2.69794
[117;224;198]	3	no	0.0266088	0.973391	2.69794
[201;229]	2	no	0.00707258	0.992927	2.64411
[117;224;198;201;229]	5	no	0.0374326	0.962567	2.64411
[109;181;147;226;117;224;198;201;229]	9	no	0.139383	0.860617	2.64411
[69;189]	2	no	0.138829	0.861171	2.27585
[5;55]	2	no	2.34222e-08	1	4.97386
[3;5;55]	3	no	8.03136e-08	1	4.97386
[3;5;55;70]	4	no	1.59441e-06	0.999998	1.74875
[4;6]	2	no	2.83949e-07	1	0.955358
[4;6;20]	3	no	1.12736e-06	0.999999	0.64455
[12;82]	2	no	0	1	0.767215
[4;6;20;12;82]	5	no	3.1398e-06	0.999997	0.64455
[3;5;55;70;4;6;20;12;82]	9	no	1.68416e-05	0.999983	0.64455
[3;5;55;70;4;6;20;12;82;91]	10	no	9.05389e-05	0.999909	0.64455
[52;85]	2	no	2.00321e-06	0.999998	0.251722
[24;81]	2	no	0.108312	0.891688	3.51601
[21;24;81]	3	no	0.158605	0.841395	3.51601
[73;195]	2	no	0.052065	0.947935	18.6415
[133;183]	2	no	0.000489303	0.999511	2.08588
[133;183;185]	3	no	0.0112558	0.988744	2.08588
[133;183;185;199]	4	no	0.0180231	0.981977	2.08588
[123;133;183;185;199]	5	no	0.0406947	0.959305	2.08588
[73;195;123;133;183;185;199]	7	no	0.0838826	0.916117	2.08588
[73;195;123;133;183;185;199;140]	8	no	0.187126	0.812874	2.08588
[106;165]	2	no	0.00641768	0.993582	2.80222
[106;165;239]	3	no	0.0145933	0.985407	2.80222
[106;165;239;111]	4	no	0.0210795	0.97892	2.80222
[106;165;239;111;108]	5	no	0.0541079	0.945892	2.80222
[191;205]	2	no	0.0100798	0.98992	5.01174
[191;205;223]	3	no	0.0224176	0.977582	5.01174
[115;191;205;223]	4	no	0.0375438	0.962456	5.01174
[115;191;205;223;168]	5	no	0.0820559	0.917944	5.01174
[106;165;239;111;108;115;191;205;223;168]	10	no	0.119175	0.880825	2.80222
[121;167]	2	no	0.0199866	0.980013	2.66424
[121;167;212]	3	no	0.0771848	0.922815	2.66424
[119;121;167;212]	4	no	0.096244	0.903756	2.66424
[44;119;121;167;212]	5	no	0.217022	0.782978	2.66424
[44;119;121;167;212;89]	6	no	0.270653	0.729347	2.66424
[177;194]	2	no	0.0795849	0.920415	5.63388
[177;194;227]	3	no	0.16988	0.83012	2.84886
[44;119;121;167;212;89;177;194;227]	9	no	0.466019	0.533981	2.66424
[171;242]	2	no	0.00137788	0.998622	4.31685
[50;171;242]	3	no	0.290774	0.709226	4.31685
[37;164]	2	no	0.119548	0.880452	1.10615
[76;93]	2	no	0.00167124	0.998329	0.812601
[51;76;93]	3	no	0.0493826	0.950617	0.812601
[15;51;76;93]	4	no	0.424114	0.575886	0.812601
[59;200]	2	no	0.227713	0.772287	1.11289
[15;51;76;93;59;200]	6	no	0.59902	0.40098	0.812601
[26;29]	2	no	0.00656584	0.993434	0.801669
[58;114]	2	no	0.12365	0.87635	0.672781
[110;225]	2	no	0.0145711	0.985429	13.6702
[110;225;134]	3	no	0.0262747	0.973725	8.55153
[192;210]	2	no	0.00702233	0.992978	5.04428
[110;225;134;192;210]	5	no	0.0639418	0.936058	5.04428
[58;114;110;225;134;192;210]	7	no	0.246588	0.753412	0.672781
[26;29;58;114;110;225;134;192;210]	9	no	0.57523	0.42477	0.672781
[22;45]	2	no	1.03688	-0.0368823	0.00328616
[33;102]	2	no	0.224266	0.775734	0.101225
[220;236]	2	no	0.00553204	0.994468	5.0152
[149;220;236]	3	no	0.124903	0.875097	5.0152
[112;149;220;236]	4	no	0.245189	0.754811	5.0152
[33;102;112;149;220;236]	6	no	0.552402	0.447598	0.101225
[22;45;33;102;112;149;220;236]	8	no	1.07134	-0.0713361	0.00328616
[53;103]	2	no	0.275894	0.724106	1.40095
[22;45;33;102;112;149;220;236;53;103]	10	no	1.07793	-0.077931	0.00328616
[30;35]	2	no	5.90397e-07	0.999999	4.29564
[30;35;98]	3	no	7.55557e-05	0.999924	4.29564
[8;30;35;98]	4	no	0.00191703	0.998083	4.29564
[8;30;35;98;25]	5	no	0.00868272	0.991317	4.29564
[8;30;35;98;25;105]	6	no	0.0187565	0.981243	2.94266
[8;30;35;98;25;105;92]	7	no	0.0562234	0.943777	2.94266
[8;30;35;98;25;105;92;94]	8	no	0.21252	0.78748	2.94266
[68;84]	2	no	0.0252323	0.974768	2.55378
[8;30;35;98;25;105;92;94;68;84]	10	no	0.340182	0.659818	2.55378
[32;61]	2	no	0.302666	0.697334	3.7814
[41;49]	2	no	0.308384	0.691616	3.7999
[47;75]	2	no	0.19976	0.80024	1.58876
[77;151]	2	no	0.303557	0.696443	0.88544
[47;75;77;151]	4	no	0.426997	0.573003	0.88544
