PDB	Rsa	SecondaryStructure
[ALA15]	0.6886792452830188	E
[PHE22]	0.5736040609137056	T
[GLN29]	0.6464646464646465	H
[GLY30]	0.27380952380952384	H
[PRO31]	0.04411764705882353	H
[ASP32]	0.0	H
[SER33]	0.27692307692307694	H
[CYS34]	0.007407407407407408	H
[CYS35]	0.037037037037037035	H
[ARG36]	0.1814516129032258	H
[GLU37]	0.5927835051546392	H
[HIS38]	0.09239130434782608	H
[ASP39]	0.2822085889570552	H
[GLN40]	0.5505050505050505	T
[CYS41]	0.08148148148148149	-
[SER42]	0.9	S
[VAL43]	0.2676056338028169	S
[GLN44]	0.24242424242424243	E
[ILE45]	0.0	E
[THR46]	0.2535211267605634	-
[ALA47]	0.33962264150943394	T
[LEU48]	0.7134146341463414	T
[GLN49]	0.3939393939393939	-
[ARG50]	0.5443548387096774	E
[LYS51]	0.4097560975609756	E
[HIS52]	0.24456521739130435	T
[GLY53]	0.20238095238095238	T
[ILE54]	0.26627218934911245	E
[PHE55]	0.40609137055837563	E
[ASN56]	0.01910828025477707	-
[LEU57]	0.8292682926829268	-
[ARG58]	0.43548387096774194	S
[PRO59]	0.8382352941176471	S
[TYR60]	0.26576576576576577	S
[THR61]	0.352112676056338	-
[ILE62]	0.029585798816568046	E
[SER63]	0.015384615384615385	E
[HIS64]	0.16847826086956522	B
[CYS65]	0.0	H
[ASP66]	0.5153374233128835	H
[CYS67]	0.2	H
[ASP68]	0.024539877300613498	H
[THR69]	0.47183098591549294	H
[ARG70]	0.6653225806451613	H
[PHE71]	0.04568527918781726	H
[ARG72]	0.036290322580645164	H
[LEU75]	0.0	H
[MET76]	0.28191489361702127	H
[ASP77]	0.7668711656441718	H
[LEU78]	0.4024390243902439	T
[ASN79]	0.9363057324840764	-
[ASP80]	0.37423312883435583	-
[THR81]	0.8098591549295775	H
[ILE82]	0.25443786982248523	H
[ALA83]	0.0	H
[ASP84]	0.4171779141104294	H
[PHE85]	0.6091370558375635	H
[ILE86]	0.09467455621301775	H
[GLY87]	0.0	H
[THR88]	0.4225352112676056	I
[THR89]	0.30985915492957744	I
[TYR90]	0.13963963963963963	I
[PHE91]	0.03553299492385787	I
[SER92]	0.33076923076923076	I
[VAL93]	0.7183098591549296	I
[LEU94]	0.5426829268292683	S
[GLN95]	0.6414141414141414	-
[ILE96]	0.05917159763313609	-
[PRO97]	0.07352941176470588	-
[CYS98]	0.08148148148148149	E
[PHE99]	0.0	E
[TYR100]	0.45045045045045046	E
[LEU101]	0.2804878048780488	E
[GLU102]	0.5463917525773195	E
[GLU103]	0.9072164948453608	E
[SER104]	0.26153846153846155	E
[GLU106]	0.6804123711340206	E
[ALA107]	0.009433962264150943	E
[CYS108]	0.11851851851851852	E
[LEU109]	0.5	E
[GLU110]	0.5103092783505154	E
[TRP111]	0.5066079295154186	E
[ALA112]	0.08490566037735849	-
[TRP113]	1.0	T
[TRP114]	0.7797356828193832	T
[CYS117]	0.35555555555555557	E
[ASN118]	0.6050955414012739	E
[LYS119]	0.5951219512195122	E
[ARG120]	0.6532258064516129	E
[GLY121]	0.19047619047619047	E
[ARG122]	0.7903225806451613	E
[MET123]	0.3617021276595745	E
[LEU124]	0.4695121951219512	E
[MET125]	0.2553191489361702	E
[ALA126]	0.09433962264150944	E
[HIS127]	0.5163043478260869	E
[THR128]	0.47183098591549294	E
[VAL129]	0.23943661971830985	E
[PRO130]	0.8088235294117647	-
[PRO131]	0.18382352941176472	-
[SER132]	0.5692307692307692	-
[ALA133]	0.5094339622641509	-
[TYR134]	0.05405405405405406	T
[GLY135]	0.8333333333333334	T
