# Log likelihood = -12468.56082565321230504196
# Number of sites = 173

# Substitution model parameters:
model=LG08(frequencies=Fixed(values=(0.079066000000, 0.055941000000, 0.041977000000, 0.053052000000, 0.012937000000, 0.040767000000, 0.071586000000, 0.057337000000, 0.022355000000, 0.062157000000, 0.099081000000, 0.064600000000, 0.022951000000, 0.042302000000, 0.044040000000, 0.061197000000, 0.053286000000, 0.012066000000, 0.034155000000, 0.069147000000)))

# Rate distribution parameters:
rate_distribution=Gamma(n=10,alpha=0.714050285204, Gamma.beta=alpha)
