PDB	Rsa	SecondaryStructure
[NA]	NA	NA
[NA]	NA	NA
[VAL13]	0.1619718309859155	H
[LEU14]	0.2621951219512195	H
[GLN15]	0.7474747474747475	H
[GLN16]	0.5505050505050505	T
[SER17]	0.13846153846153847	-
[GLN34]	0.21717171717171718	H
[LYS35]	0.5756097560975609	H
[GLU36]	0.4020618556701031	H
[ILE37]	0.0	H
[VAL38]	0.09154929577464789	H
[ASP39]	0.44785276073619634	H
[LYS40]	0.22926829268292684	H
[HIS41]	0.0	H
[ASN42]	0.050955414012738856	H
[ALA43]	0.3584905660377358	H
[LEU44]	0.04878048780487805	H
[ARG45]	0.004032258064516129	H
[ARG46]	0.3709677419354839	H
[SER47]	0.4307692307692308	T
[VAL48]	0.007042253521126761	-
[ARG49]	0.625	S
[PRO50]	0.4411764705882353	S
[THR51]	0.38028169014084506	-
[ALA52]	0.0660377358490566	B
[ARG53]	0.3387096774193548	S
[ASN54]	0.012738853503184714	-
[MET55]	0.031914893617021274	-
[LEU56]	0.006097560975609756	B
[GLN57]	0.25757575757575757	-
[MET58]	0.015957446808510637	-
[GLU59]	0.634020618556701	E
[TRP60]	0.2290748898678414	E
[ASN61]	0.21656050955414013	-
[SER62]	0.6153846153846154	H
[ASN63]	0.554140127388535	H
[ALA64]	0.0	H
[THR65]	0.056338028169014086	H
[GLN66]	0.4898989898989899	H
[ASN67]	0.15286624203821655	H
[ALA68]	0.0	H
[LYS69]	0.35121951219512193	H
[ARG70]	0.5725806451612904	H
[TRP71]	0.05286343612334802	H
[ALA72]	0.0	H
[ASP73]	0.5214723926380368	T
[ARG74]	0.6693548387096774	T
[CYS75]	0.2740740740740741	T
[HIS79]	0.5434782608695652	-
[SER80]	0.05384615384615385	-
[PRO81]	0.4852941176470588	-
[GLN82]	0.803030303030303	G
[HIS83]	0.7989130434782609	G
[LEU84]	0.34146341463414637	G
[ARG85]	0.2620967741935484	-
[LYS89]	0.975609756097561	T
[LEU90]	0.07926829268292683	E
[SER91]	0.5461538461538461	E
[CYS92]	0.037037037037037035	-
[GLY93]	0.07142857142857142	E
[GLU94]	0.03608247422680412	E
[ASN95]	0.006369426751592357	E
[LEU96]	0.10365853658536585	E
[PHE97]	0.15228426395939088	E
[MET98]	0.30319148936170215	E
[SER99]	0.0	E
[SER100]	0.27692307692307694	S
[HIS101]	0.43478260869565216	S
[PRO102]	0.07352941176470588	-
[HIS103]	0.021739130434782608	-
[SER104]	0.4076923076923077	-
[TRP105]	0.0	H
[THR106]	0.39436619718309857	H
[ARG107]	0.3911290322580645	H
[VAL108]	0.0	H
[ILE109]	0.0	H
[GLN110]	0.3181818181818182	H
[ALA111]	0.22641509433962265	H
[TRP112]	0.03524229074889868	H
[TYR113]	0.0990990990990991	H
[ASN114]	0.33121019108280253	G
[GLU115]	0.211340206185567	G
[TYR116]	0.42792792792792794	G
[LYS117]	0.6682926829268293	G
[LYS118]	0.5658536585365853	G
[PHE119]	0.1319796954314721	-
[ARG120]	0.6209677419354839	B
[TYR121]	0.26576576576576577	T
[GLY122]	0.5714285714285714	T
[VAL123]	0.5915492957746479	T
[GLY124]	0.13095238095238096	B
[ALA125]	0.2169811320754717	S
[ASN126]	0.5477707006369427	S
[PRO127]	0.4117647058823529	S
[PRO128]	0.8970588235294118	T
[GLY129]	0.7261904761904762	T
[SER130]	0.16923076923076924	-
[VAL131]	0.6267605633802817	-
[TYR135]	0.018018018018018018	H
[THR136]	0.0	H
[GLN137]	0.0	H
[ILE138]	0.0	H
[VAL139]	0.0	H
[TRP140]	0.01762114537444934	-
[TYR141]	0.16216216216216217	T
[LYS142]	0.22439024390243903	T
[SER143]	0.0	-
[HIS144]	0.10869565217391304	-
[LEU145]	0.14634146341463414	E
[VAL146]	0.0	E
[GLY147]	0.0	E
[CYS148]	0.0	E
[ALA149]	0.0	E
[ALA150]	0.11320754716981132	E
[ALA151]	0.08490566037735849	E
[ARG152]	0.6491935483870968	E
[CYS153]	0.02962962962962963	-
[PHE158]	0.28426395939086296	-
[TYR160]	0.13513513513513514	E
[VAL163]	0.0	E
[CYS164]	0.0	E
[HIS165]	0.010869565217391304	E
[TYR166]	0.0	E
[CYS167]	0.0	E
[PRO168]	0.03676470588235294	S
[ALA169]	0.25471698113207547	-
[GLY170]	0.0	-
[ASN171]	0.3885350318471338	-
[ILE172]	0.40236686390532544	-
[VAL173]	0.9577464788732394	G
[GLY174]	0.8809523809523809	G
[SER175]	0.3923076923076923	G
[ILE176]	0.23076923076923078	T
[ALA177]	0.22641509433962265	T
[THR178]	0.352112676056338	-
[PRO179]	0.0	S
[TYR180]	0.013513513513513514	S
[LYS181]	0.5024390243902439	-
[SER182]	0.3769230769230769	B
[GLY183]	0.16666666666666666	S
[PRO184]	0.6397058823529411	S
[PRO185]	0.5661764705882353	T
[CYS186]	0.044444444444444446	T
[GLY187]	0.44047619047619047	T
[ASP188]	0.31901840490797545	T
[CYS189]	0.007407407407407408	-
[PRO190]	0.8088235294117647	G
[SER191]	0.7384615384615385	G
[ALA192]	0.16037735849056603	G
[CYS193]	0.37037037037037035	E
[VAL194]	0.44366197183098594	E
[ASN195]	0.8089171974522293	T
[GLY196]	0.38095238095238093	T
[LEU197]	0.0	E
[CYS198]	0.0	E
[CYS202]	0.014814814814814815	-
[GLU203]	0.7783505154639175	S
[TYR204]	0.46396396396396394	-
[VAL205]	0.38028169014084506	-
[ASN206]	0.2356687898089172	-
[ASN210]	0.6496815286624203	T
[CYS211]	0.007407407407407408	H
[GLU212]	0.6443298969072165	H
[ALA213]	0.3867924528301887	H
[LEU214]	0.22560975609756098	H
[CYS220]	0.362962962962963	T
[PRO230]	0.1323529411764706	H
[ALA231]	0.009433962264150943	H
[SER232]	0.3230769230769231	H
[CYS233]	0.11851851851851852	H
[PHE234]	0.4416243654822335	H
[CYS235]	0.14814814814814814	-
